﻿01b3462f-bb96-43d3-862b-e5cbcf9afd55-->und\01b3462f-bb96-43d3-862b-e5cbcf9afd55
01b3462f-bb96-43d3-862b-e5cbcf9afd55.0-->Form\Форма
103ebd31-7643-4b1a-ba8b-4c789efcb71f-->und\103ebd31-7643-4b1a-ba8b-4c789efcb71f
103ebd31-7643-4b1a-ba8b-4c789efcb71f.0-->Form\УправляемаяФорма\Форма.txt
103ebd31-7643-4b1a-ba8b-4c789efcb71f.0-->und\103ebd31-7643-4b1a-ba8b-4c789efcb71f.0
103ebd31-7643-4b1a-ba8b-4c789efcb71f.0-->und\103ebd31-7643-4b1a-ba8b-4c789efcb71f.0
178f7433-f515-4d45-befa-5af52252dd0a-->und\178f7433-f515-4d45-befa-5af52252dd0a
178f7433-f515-4d45-befa-5af52252dd0a.0-->Макеты\СозданиеДвухЗаписейРегистраБухгалтерии.mxl
178f7433-f515-4d45-befa-5af52252dd0a.0-->und\178f7433-f515-4d45-befa-5af52252dd0a.0
3bcacc26-7049-41bb-94bc-b45f76986467-->und\3bcacc26-7049-41bb-94bc-b45f76986467
3bcacc26-7049-41bb-94bc-b45f76986467.0-->Макеты\СозданиеДвухПростыхСправочников.mxl
3bcacc26-7049-41bb-94bc-b45f76986467.0-->und\3bcacc26-7049-41bb-94bc-b45f76986467.0
4b38e3ee-f722-47b8-9c4c-1c4aa073ba10-->und\4b38e3ee-f722-47b8-9c4c-1c4aa073ba10
4b38e3ee-f722-47b8-9c4c-1c4aa073ba10.0-->Макеты\ЭталонМакетаПростогоСправочника.mxl
4b38e3ee-f722-47b8-9c4c-1c4aa073ba10.0-->und\4b38e3ee-f722-47b8-9c4c-1c4aa073ba10.0
54f1dec0-8f13-4065-9f45-0e74788142d2.0\info-->und\54f1dec0-8f13-4065-9f45-0e74788142d2.0\info
54f1dec0-8f13-4065-9f45-0e74788142d2.0\text-->ObjectModule.txt
5e00fac5-7796-4854-8e6b-c5933432d814-->und\5e00fac5-7796-4854-8e6b-c5933432d814
5e00fac5-7796-4854-8e6b-c5933432d814.0-->Макеты\СозданиеДокументаСДвумяСтрокамиВТабличнойЧасти.mxl
5e00fac5-7796-4854-8e6b-c5933432d814.0-->und\5e00fac5-7796-4854-8e6b-c5933432d814.0
624cf4b8-3591-4ce1-9579-6ac683689eb1-->und\624cf4b8-3591-4ce1-9579-6ac683689eb1
624cf4b8-3591-4ce1-9579-6ac683689eb1.0-->Макеты\СозданиеПодчиненногоСправочника.mxl
624cf4b8-3591-4ce1-9579-6ac683689eb1.0-->und\624cf4b8-3591-4ce1-9579-6ac683689eb1.0
6da54382-70f9-4d82-aa91-d001b86297ee-->und\6da54382-70f9-4d82-aa91-d001b86297ee
6da54382-70f9-4d82-aa91-d001b86297ee.0-->Макеты\СозданиеДвухЗаписейРегистраНакопления.mxl
6da54382-70f9-4d82-aa91-d001b86297ee.0-->und\6da54382-70f9-4d82-aa91-d001b86297ee.0
7b3de063-6588-445c-a318-e989e219f24c-->und\7b3de063-6588-445c-a318-e989e219f24c
7b3de063-6588-445c-a318-e989e219f24c.0-->Макеты\СозданиеСвязанныхСправочников.mxl
7b3de063-6588-445c-a318-e989e219f24c.0-->und\7b3de063-6588-445c-a318-e989e219f24c.0
96508b55-1be0-4dbb-9a9d-a96d9a404282-->und\96508b55-1be0-4dbb-9a9d-a96d9a404282
96508b55-1be0-4dbb-9a9d-a96d9a404282.0-->Макеты\ЭталонМакетаДвухЗаписейВРегистреСведений.mxl
96508b55-1be0-4dbb-9a9d-a96d9a404282.0-->und\96508b55-1be0-4dbb-9a9d-a96d9a404282.0
96bd1b96-9768-4a45-a972-1a728188f448-->und\96bd1b96-9768-4a45-a972-1a728188f448
96bd1b96-9768-4a45-a972-1a728188f448.0-->Макеты\СозданиеСправочникаВГруппе.mxl
96bd1b96-9768-4a45-a972-1a728188f448.0-->und\96bd1b96-9768-4a45-a972-1a728188f448.0
9bd9901f-46d8-4c40-88b9-f58ac48f0fd0-->und\9bd9901f-46d8-4c40-88b9-f58ac48f0fd0
9bd9901f-46d8-4c40-88b9-f58ac48f0fd0.0-->Макеты\СозданиеСправочникаСДвумяСтрокамиВТабличнойЧасти.mxl
9bd9901f-46d8-4c40-88b9-f58ac48f0fd0.0-->und\9bd9901f-46d8-4c40-88b9-f58ac48f0fd0.0
9c8d5c50-f21a-4e92-a2df-2a0b5306e991-->und\9c8d5c50-f21a-4e92-a2df-2a0b5306e991
9c8d5c50-f21a-4e92-a2df-2a0b5306e991.0-->Макеты\СозданиеСправочникаСРеквизитомСсылка_РежимПоискаКод.mxl
9c8d5c50-f21a-4e92-a2df-2a0b5306e991.0-->und\9c8d5c50-f21a-4e92-a2df-2a0b5306e991.0
a5b4bbdd-19ca-489b-9dce-60e08daa143f-->und\a5b4bbdd-19ca-489b-9dce-60e08daa143f
a5b4bbdd-19ca-489b-9dce-60e08daa143f.0-->Макеты\СозданиеДвухЗаписейВРегистреСведений.mxl
a5b4bbdd-19ca-489b-9dce-60e08daa143f.0-->und\a5b4bbdd-19ca-489b-9dce-60e08daa143f.0
aeaa86b2-a07f-40ef-afd6-1b116e7a37b6-->und\aeaa86b2-a07f-40ef-afd6-1b116e7a37b6
aeaa86b2-a07f-40ef-afd6-1b116e7a37b6.0-->Макеты\СозданиеОбъектаСЗаполненнымРеквизитомТипаПеречисление.mxl
aeaa86b2-a07f-40ef-afd6-1b116e7a37b6.0-->und\aeaa86b2-a07f-40ef-afd6-1b116e7a37b6.0
copyinfo-->und\copyinfo
d0ac533a-c210-47e2-94e1-6d5329bcc033-->und\d0ac533a-c210-47e2-94e1-6d5329bcc033
efa2b5fc-de31-4695-a81b-8acc1a24d8f8-->und\efa2b5fc-de31-4695-a81b-8acc1a24d8f8
efa2b5fc-de31-4695-a81b-8acc1a24d8f8.0-->Макеты\СозданиеПростогоСправочника.mxl
efa2b5fc-de31-4695-a81b-8acc1a24d8f8.0-->und\efa2b5fc-de31-4695-a81b-8acc1a24d8f8.0
f04e1194-a196-4a4b-b797-7ece45ac1872-->und\f04e1194-a196-4a4b-b797-7ece45ac1872
f04e1194-a196-4a4b-b797-7ece45ac1872.0-->Макеты\СозданиеСправочникаСПустойСсылкойРеквизитаСоставногоТипа.mxl
f04e1194-a196-4a4b-b797-7ece45ac1872.0-->und\f04e1194-a196-4a4b-b797-7ece45ac1872.0
f930823a-837f-43ad-9791-02742bdf3c7a-->und\f930823a-837f-43ad-9791-02742bdf3c7a
f930823a-837f-43ad-9791-02742bdf3c7a.0-->Макеты\СозданиеПростогоСправочника_ПредставлениеНеИдентификатор.mxl
f930823a-837f-43ad-9791-02742bdf3c7a.0-->und\f930823a-837f-43ad-9791-02742bdf3c7a.0
root-->und\root
version-->und\version
versions-->und\versions
